{
        "name": "Afghanistan",
        "capital": "Kabul",
        "altSpellings": [
            "AF",
            "Afġānistān"
        ],
        "relevance": "0",
        "region": null,
        "subregion": "Southern Asia",
        "translations": {
            "de": "Afghanistan",
            "es": "Afganistán",
            "fr": "Afghanistan",
            "ja": "アフガニスタン",
            "it": "Afghanistan"
        },
        "population":,
        "latlng": [
            33,
            65
        ],
        "demonym": "Afghan",
        "area": 652230,
        "gini": 27.8,
        "timezones": [
            "UTC+04:30"
        ],
        "borders": [
            "IRN",
            "PAK",
            "TKM",
            "UZB",
            "TJK",
            "CHN"
        ],
        "nativeName": "افغانستان",
        "callingCodes": [
            "93"
        ],
        "topLevelDomain": [
            ".af"
        ],
        "alpha2Code":,
        "alpha3Code": "AFG",
        "currencies": [
            "AFN"
        ],
        "languages": [
            "ps",
            "uz",
            "tk"
        ]
    }